module gitlab.oit.duke.edu/oit-ssi-systems/krb-cifs-helper

go 1.23

require (
	github.com/charmbracelet/log v0.4.0
	gopkg.in/yaml.v3 v3.0.1
)

require (
	github.com/aymanbagabas/go-osc52/v2 v2.0.1 // indirect
	github.com/charmbracelet/lipgloss v0.13.1 // indirect
	github.com/charmbracelet/x/ansi v0.3.2 // indirect
	github.com/go-logfmt/logfmt v0.6.0 // indirect
	github.com/lucasb-eyer/go-colorful v1.2.0 // indirect
	github.com/mattn/go-isatty v0.0.20 // indirect
	github.com/mattn/go-runewidth v0.0.16 // indirect
	github.com/muesli/termenv v0.15.2 // indirect
	github.com/rivo/uniseg v0.4.7 // indirect
	golang.org/x/exp v0.0.0-20241009180824-f66d83c29e7c // indirect
	golang.org/x/sys v0.26.0 // indirect
)
